[1.00000000000000,
 0.000000000000000,
 1.00000000000000,
 0.000000000000000,
 1.00000000000000,
 0.000000000000000,
 1.00000000000000,
 0.000000000000000,
 1.00000000000000,
 0.000000000000000,
 1.00000000000000,
 0.000000000000000,
 1.00000000000000,
 0.000000000000000,
 1.00000000000000,
 0.000000000000000,
 1.00000000000000,
 0.000000000000000,
 1.00000000000000,
 0.000000000000000]
[0.706086415863734,
 0.706597475013503,
 0.706090646701171,
 0.000000000000000,
 0.706094842598047,
 0.706601673976170,
 0.706099003985419,
 0.000000000000000,
 0.706103131287283,
 0.706605804268494,
 0.706107224920717,
 0.000000000000000,
 0.706111285296022,
 0.706609867561378,
 0.706115312816861,
 0.000000000000000,
 0.706119307880388,
 0.706613865471949,
 0.706123270877383,
 0.000000000000000]
